/* XPM */
static char *schmeckles16[] = {
/* columns rows colors chars-per-pixel */
"10 16 121 2 ",
"   c #3FAB21",
".  c #46B71E",
"X  c #50BA1D",
"o  c #41AA20",
"O  c #4BB624",
"+  c #4CBA20",
"@  c #4ABC20",
"#  c #4EBB25",
"$  c #4BBE24",
"%  c #4DBB2A",
"&  c #50BE22",
"*  c #58BB20",
"=  c #41AE38",
"-  c #42B632",
";  c #58BE37",
":  c #4CC01E",
">  c #47CE19",
",  c #4BCC1E",
"<  c #4FC122",
"1  c #57C326",
"2  c #57C922",
"3  c #54CA22",
"4  c #57CC25",
"5  c #50C629",
"6  c #58C82C",
"7  c #59D121",
"8  c #5BD324",
"9  c #5ED025",
"0  c #5FDB24",
"q  c #56D72B",
"w  c #5ED129",
"e  c #5CDD2B",
"r  c #4DC836",
"t  c #4EC339",
"y  c #68CD2B",
"u  c #66D123",
"i  c #62DA27",
"p  c #65D829",
"a  c #76D82D",
"s  c #6CD133",
"d  c #60D039",
"f  c #6BD73A",
"g  c #73DF35",
"h  c #58E621",
"j  c #58E422",
"k  c #5CE522",
"l  c #5BE42B",
"z  c #6AEC25",
"x  c #6BE22A",
"c  c #62EB2C",
"v  c #66ED2E",
"b  c #72E626",
"n  c #74E22C",
"m  c #72ED2E",
"M  c #77EF2F",
"N  c #7AF02B",
"B  c #6DEC31",
"V  c #69E438",
"C  c #77E430",
"Z  c #71EF31",
"A  c #73EA36",
"S  c #7FF135",
"D  c #3AAB47",
"F  c #38A857",
"G  c #39B36B",
"H  c #35A972",
"J  c #39AD7B",
"K  c #3FB877",
"L  c #40A946",
"P  c #3EC26B",
"I  c #3DC073",
"U  c #4FC947",
"Y  c #46CB48",
"T  c #59D947",
"R  c #47CB5A",
"E  c #54D053",
"W  c #63DC46",
"Q  c #75DB46",
"!  c #6DEA42",
"~  c #7BE941",
"^  c #48C166",
"/  c #46C772",
"(  c #48C071",
")  c #8ADC34",
"_  c #81ED2B",
"`  c #80E931",
"'  c #88E836",
"]  c #86E03B",
"[  c #88EA3D",
"{  c #83F035",
"}  c #82F037",
"|  c #87F235",
" . c #8AF23B",
".. c #8EF239",
"X. c #8EF23D",
"o. c #90F436",
"O. c #96F534",
"+. c #98F633",
"@. c #9CFA32",
"#. c #91F23E",
"$. c #96F63D",
"%. c #9BF73A",
"&. c #9AF53D",
"*. c #A5F73A",
"=. c #93DA54",
"-. c #8AF241",
";. c #9AF541",
":. c #9EF053",
">. c #98F454",
",. c #A5F743",
"<. c #A1F645",
"1. c #A5E57A",
"2. c #BBFA72",
"3. c #36BB98",
"4. c #3BBCA7",
"5. c #35B7A8",
"6. c #40B781",
"7. c #43BE89",
"8. c #42C092",
"9. c #54C9B2",
"0. c None",
/* pixels */
"0.0.0. .-.Z 0.0.0.0.",
"0.0.B } >.Z } 0.0.0.",
"0.0.! k u 4 w #.0.0.",
"0.v l , X u . a +.0.",
"0.m j : X 0 e 6 _ 0.",
"..A j # F 6.8.( x 0.",
"| ~ q K H D t 5 i ;.",
"o.` - 5.J G U 3 p &.",
"@.)   Y / ( 4.T b *.",
"%.=.  > 4 R 3.r n ,.",
"+.] F / 7.9.^ + [ <.",
"0.'   E W d 8 . C 0.",
"0.X.s 1 7 & 5 O g 0.",
"0.0.} f ; % @ y 0.0.",
"0.0.z c V Q 1.:.0.0.",
"0.0.0.0.N $.2.0.0.0."
};
